{
  "users": [
    {
      "companyId": 0,
      "companyName": "General Electric",
      "displayName": "John Doe",
      "email": "john.doe@ge.com",
      "id": 0,
      "roleId": 0,
      "teamId": 0
    }
  ],
  "roles": [
    {
      "canAddUser": "NONE",
      "canAssignRoles": [],
      "canDeleteUser": "NONE",
      "canDeleteVideo": "NONE",
      "canDownloadVideo": "NONE",
      "canEditUser": "NONE",
      "canEditVideo": "NONE",
      "canPublishVideo": "NONE",
      "canViewUser": "NONE",
      "canViewVideo": "NONE",
      "defaultRole": true,
      "id": 0,
      "name": "Publisher",
      "publishDestinations": "NONE",
      "publishNotifications": "NONE",
      "uploadNotifications": "NONE"
    },
    {
      "id": 1,
      "canAddUser": "ALL_IN_COMPANY",
      "canAssignRoles": [
        "Publisher"
      ],
      "canDeleteUser": "ALL_IN_COMPANY",
      "canDeleteVideo": "ALL_IN_COMPANY",
      "canDownloadVideo": "ALL_IN_COMPANY",
      "canEditUser": "ALL_IN_COMPANY",
      "canEditVideo": "ALL_IN_COMPANY",
      "canPublishVideo": "ALL_IN_COMPANY",
      "canViewUser": "ALL_IN_COMPANY",
      "canViewVideo": "ALL_IN_COMPANY",
      "defaultRole": false,
      "name": "Magician",
      "publishDestinations": "ALL_IN_COMPANY",
      "publishNotifications": "ALL_IN_COMPANY",
      "uploadNotifications": "ALL_IN_COMPANY"
    }
  ]
}
